…
Missingness in data

``` r
naniar::miss_var_summary(df)
```

    ## # A tibble: 124 × 3
    ##    variable                                                       n_miss pct_m…¹
    ##    <chr>                                                           <int>   <dbl>
    ##  1 gender.dysphoria                                                 6872     100
    ##  2 DO                                                               6872     100
    ##  3 OocyteThawDateStartDateDiff_Until2013Only                        6872     100
    ##  4 ThawedOocyteRetrievalToCryoPreservationDateDiff_Until2013Only    6872     100
    ##  5 ThawedOocyteDonorRetrievalToCryoPreservationDateDiff_Until201…   6872     100
    ##  6 StartDateFreezeDateDiff_AutologousRetrieval2_Freeze3_3_Autolo…   6872     100
    ##  7 StartDateFreezeDateDiff_AutologousRetrieval4_Freeze3_3_Autolo…   6872     100
    ##  8 RetrievalDateStartDateDiff_AutologousRetrieval5                  6872     100
    ##  9 StartDateFreezeDateDiff_AutologousRetrieval5_Freeze2_2_Autolo…   6872     100
    ## 10 StartDateFreezeDateDiff_AutologousRetrieval5_Freeze3_3_Autolo…   6872     100
    ## # … with 114 more rows, and abbreviated variable name ¹​pct_miss

``` r
df <- df[,colSums(is.na(df))<nrow(df)]
naniar::miss_var_summary(df)
```

    ## # A tibble: 109 × 3
    ##    variable                                                       n_miss pct_m…¹
    ##    <chr>                                                           <int>   <dbl>
    ##  1 StartDateFreezeDateDiff_AutologousRetrieval3_Freeze3_3_Autolo…   6871   100. 
    ##  2 StartDateFreezeDateDiff_AutologousRetrieval4_Freeze2_2_Autolo…   6871   100. 
    ##  3 StartDateFreezeDateDiff_AutologousRetrieval3_Freeze2_2_Autolo…   6870   100. 
    ##  4 Medical.Tumor.prevention                                         6869   100. 
    ##  5 StartDateFreezeDateDiff_AutologousRetrieval6                     6869   100. 
    ##  6 TransferDateRetrievalDateDiff_AutologousRetrieval6               6869   100. 
    ##  7 RetrievalDateStartDateDiff_AutologousRetrieval4                  6868    99.9
    ##  8 OocytesCryoed_AutologousRetrieval4                               6868    99.9
    ##  9 StartDateFreezeDateDiff_AutologousRetrieval2_Freeze2_2_Autolo…   6867    99.9
    ## 10 StartDateFreezeDateDiff_AutologousRetrieval6_Freeze1_1_Autolo…   6867    99.9
    ## # … with 99 more rows, and abbreviated variable name ¹​pct_miss
…
``` r
df <- df %>%
  mutate(sum_2 = rowSums(across(c(Time_to.claim_1, Time_to.claim_2, Time_to.claim_3, Time_to.claim_4, Time_to.claim_5, Time_to.claim_6)), na.rm=TRUE))

names(df)[111]=paste("Time_to.claim")
```
Trim all in between cycles after aggregating the data

    ## # A tibble: 63 × 3
    ##    variable                                        n_miss pct_miss
    ##    <chr>                                            <int>    <dbl>
    ##  1 RetrievalDateStartDateDiff_AutologousRetrieval1   6538    100  
    ##  2 Medical.Tumor.prevention                          6535    100. 
    ##  3 Syndromatic.DOR                                   6516     99.7
    ##  4 Onco                                              6491     99.3
    ##  5 DOR..35                                           6314     96.6
    ##  6 OtherReasonRFA                                    6037     92.3
    ##  7 Medical.benign                                    5989     91.6
    ##  8 Unknowen                                          5930     90.7
    ##  9 StartDateFreezeDateDiff_AutologousRetrieval1      4933     75.5
    ## 10 NumberBorn                                        4179     63.9
    ## # … with 53 more rows
…
